<svg width="32" height="32" viewBox="0 0 32 32" fill="none" xmlns="http://www.w3.org/2000/svg">
<circle cx="16" cy="16" r="15" transform="rotate(90 16 16)" stroke="white" stroke-width="2"/>
<path d="M11.42 18.7049L16 14.1249L20.59 18.7049L22 17.2949L16 11.2949L10 17.2949L11.42 18.7049Z" fill="white"/>
</svg>
